<?xml version="1.0" encoding="UTF-8" standalone="no"?>
<!-- Created with Inkscape (http://www.inkscape.org/) -->

<svg
   xmlns:dc="http://purl.org/dc/elements/1.1/"
   xmlns:cc="http://creativecommons.org/ns#"
   xmlns:rdf="http://www.w3.org/1999/02/22-rdf-syntax-ns#"
   xmlns:svg="http://www.w3.org/2000/svg"
   xmlns="http://www.w3.org/2000/svg"
   xmlns:sodipodi="http://sodipodi.sourceforge.net/DTD/sodipodi-0.dtd"
   xmlns:inkscape="http://www.inkscape.org/namespaces/inkscape"
   width="109.90072mm"
   height="109.90072mm"
   viewBox="0 0 109.90072 109.90072"
   version="1.1"
   id="svg2241"
   inkscape:version="0.92.2 (5c3e80d, 2017-08-06)"
   sodipodi:docname="git-portal.svg"
   inkscape:export-filename="/home/klaatu/src/git-portal.git/share/icons/hicolor/512x512/git-portal.png"
   inkscape:export-xdpi="118.33"
   inkscape:export-ydpi="118.33">
  <defs
     id="defs2235">
    <clipPath
       id="clip1">
      <path
         id="path834"
         d="M 0,0.00390625 H 91.886719 V 91.890625 H 0 Z m 0,0"
         inkscape:connector-curvature="0" />
    </clipPath>
  </defs>
  <sodipodi:namedview
     id="base"
     pagecolor="#ffffff"
     bordercolor="#666666"
     borderopacity="1.0"
     inkscape:pageopacity="0.0"
     inkscape:pageshadow="2"
     inkscape:zoom="0.35"
     inkscape:cx="-463.74218"
     inkscape:cy="113.40068"
     inkscape:document-units="mm"
     inkscape:current-layer="layer1"
     showgrid="false"
     fit-margin-top="0"
     fit-margin-left="0"
     fit-margin-right="0"
     fit-margin-bottom="0"
     inkscape:window-width="1920"
     inkscape:window-height="1016"
     inkscape:window-x="0"
     inkscape:window-y="27"
     inkscape:window-maximized="1" />
  <metadata
     id="metadata2238">
    <rdf:RDF>
      <cc:Work
         rdf:about="">
        <dc:format>image/svg+xml</dc:format>
        <dc:type
           rdf:resource="http://purl.org/dc/dcmitype/StillImage" />
        <dc:title />
      </cc:Work>
    </rdf:RDF>
  </metadata>
  <g
     inkscape:label="Layer 1"
     inkscape:groupmode="layer"
     id="layer1"
     transform="translate(78.384879,-71.960357)">
    <g
       transform="translate(-127.43685,-39.206736)"
       id="g1570">
      <g
         id="g1615"
         transform="rotate(45,178.90456,171.44058)">
        <g
           id="g969"
           transform="matrix(-0.84573203,0.84573203,0.84573203,0.84573203,122.17336,142.92559)"
           style="fill:#d3d7cf;fill-opacity:1">
          <g
             id="g967"
             clip-path="url(#clip1)"
             style="clip-rule:nonzero;fill:#d3d7cf;fill-opacity:1">
            <path
               id="path965"
               d="M 90.15625,41.855469 50.035156,1.738281 c -2.308594,-2.3125 -6.058594,-2.3125 -8.371094,0 L 29.242188,14.160156 m 0,0 -27.511719,27.507813 c -2.308594,2.3125 -2.308594,6.0625 0,8.371093 L 41.851562,90.15625 c 2.3125,2.3125 6.058594,2.3125 8.371094,0 L 90.15625,50.226562 c 2.308594,-2.3125 2.308594,-6.0625 0,-8.371093"
               style="fill:#d3d7cf;fill-opacity:1;fill-rule:nonzero;stroke:none"
               inkscape:connector-curvature="0"
               sodipodi:nodetypes="ccccccccccc" />
          </g>
        </g>
        <g
           aria-label="+ "
           transform="matrix(0,1,1,0,204.86975,-140.18363)"
           style="font-style:normal;font-weight:normal;font-size:86.18511963px;line-height:1.25;font-family:sans-serif;letter-spacing:0px;word-spacing:0px;fill:#3465a4;fill-opacity:1;stroke:none;stroke-width:2.15462804"
           id="text975">
          <path
             d="m 356.68407,-49.294477 v -23.439996 h 7.06987 v 23.439996"
             style="fill:#3465a4;fill-opacity:1;stroke-width:2.15462804"
             id="path981"
             inkscape:connector-curvature="0"
             sodipodi:nodetypes="cccc" />
        </g>
        <g
           aria-label="+ "
           transform="matrix(0,1,1,0,15.136557,159.99519)"
           style="font-style:normal;font-weight:normal;font-size:86.18511963px;line-height:1.25;font-family:sans-serif;letter-spacing:0px;word-spacing:0px;fill:#f03a2b;fill-opacity:1;stroke:none;stroke-width:2.15462804"
           id="g979">
          <path
             d="m 33.210575,112.49642 v -7.15403 c 19.442865,0.0424 37.490382,-0.33847 54.869335,-0.40901 l -0.191194,7.59072 c -18.203725,-0.0866 -36.474281,-0.0277 -54.678141,-0.0277 z"
             style="fill:#f03a2b;fill-opacity:1;stroke-width:2.15462804"
             id="path977"
             inkscape:connector-curvature="0"
             sodipodi:nodetypes="cccccc" />
        </g>
        <g
           id="g986"
           style="font-style:normal;font-weight:normal;font-size:86.18511963px;line-height:1.25;font-family:sans-serif;letter-spacing:0px;word-spacing:0px;fill:#3465a4;fill-opacity:1;stroke:none;stroke-width:2.15462804"
           transform="matrix(0,1,1,0,161.5125,-140.17826)"
           aria-label="+ ">
          <path
             style="fill:#3465a4;fill-opacity:1;stroke-width:8.14347649"
             d="m 553.48828,807.22461 a 24.642857,24.642857 0 0 0 -17.0664,7.21484 24.642857,24.642857 0 0 0 -3.73829,4.86133 h -59.74218 v 26.7207 h 60.73828 a 24.642857,24.642857 0 0 0 2.74219,3.26954 24.642857,24.642857 0 0 0 34.8496,0 24.642857,24.642857 0 0 0 0,-34.85157 24.642857,24.642857 0 0 0 -17.7832,-7.21484 z"
             transform="matrix(0,0.26458333,0.26458333,0,139.91068,-197.86686)"
             id="path984"
             inkscape:connector-curvature="0" />
        </g>
      </g>
    </g>
  </g>
</svg>
